<svg xmlns="http://www.w3.org/2000/svg" xmlns:xlink="http://www.w3.org/1999/xlink" xmlns:ev="http://www.w3.org/2001/xml-events"
		xmlns:v="http://schemas.microsoft.com/visio/2003/SVGExtensions/" width="2.47105in" height="1.15215in"
		viewBox="0 0 177.915 82.9547" xml:space="preserve" color-interpolation-filters="sRGB" class="st2">

		<g id="shape1-1" v:mID="1" v:groupContext="shape" transform="translate(0.375,-0.375)">
			<rect fill="#D7D7D7"  x="0" y="0.750004" width="177.165" height="82.2047" class="st1"/>
		</g>
</svg>
